<?xml version="1.0" encoding="utf-8"?>
<!-- Generator: Adobe Illustrator 22.1.0, SVG Export Plug-In . SVG Version: 6.00 Build 0)  -->
<svg version="1.1" id="Layer_1" xmlns="http://www.w3.org/2000/svg" xmlns:xlink="http://www.w3.org/1999/xlink" x="0px" y="0px"
	 viewBox="0 0 500 500" style="enable-background:new 0 0 500 500;" xml:space="preserve">
<style type="text/css">
	.st0{fill:none;stroke:#D7D7D7;stroke-width:15;stroke-miterlimit:10;}
	.st1{fill:none;stroke:#204680;stroke-width:15;stroke-miterlimit:10;}
</style>
<circle class="st0" cx="250" cy="250" r="242.5"/>
<path id="cool_shape" class="st1" d="M409.3,432.8C366.7,470,311,492.5,250,492.5C116.1,492.5,7.5,383.9,7.5,250S116.1,7.5,250,7.5
	c48.7,0,94.1,14.4,132.2,39.1"/>

	<animateTransform
	xlink:href="#cool_shape"
	attributeName="transform"
	type="rotate"
	from="0 250 250"
	to="360 250 250"
	dur="4s"
	repeatCount="indefinite" />
</svg>
